<mxfile host="app.diagrams.net" modified="2022-02-14T03:45:32.047Z" agent="5.0 (Windows NT 10.0; Win64; x64) AppleWebKit/537.36 (KHTML, like Gecko) Chrome/98.0.4758.87 Safari/537.36" etag="cceA2DwtSAu7acIlDNmX" version="16.5.6" type="gitlab" pages="2">
  <diagram id="C5RBs43oDa-KdzZeNtuy" name="Functional_Flow">
    <mxGraphModel dx="1422" dy="758" grid="1" gridSize="10" guides="1" tooltips="1" connect="1" arrows="1" fold="1" page="1" pageScale="1" pageWidth="827" pageHeight="1169" math="0" shadow="0">
      <root>
        <mxCell id="WIyWlLk6GJQsqaUBKTNV-0" />
        <mxCell id="WIyWlLk6GJQsqaUBKTNV-1" parent="WIyWlLk6GJQsqaUBKTNV-0" />
        <mxCell id="WIyWlLk6GJQsqaUBKTNV-2" value="" style="rounded=0;html=1;jettySize=auto;orthogonalLoop=1;fontSize=11;endArrow=block;endFill=0;endSize=8;strokeWidth=1;shadow=0;labelBackgroundColor=none;edgeStyle=orthogonalEdgeStyle;" parent="WIyWlLk6GJQsqaUBKTNV-1" source="WIyWlLk6GJQsqaUBKTNV-3" target="QXNLKvz9UyWD1oBQTvfC-10" edge="1">
          <mxGeometry relative="1" as="geometry">
            <mxPoint x="420" y="180" as="targetPoint" />
          </mxGeometry>
        </mxCell>
        <mxCell id="WIyWlLk6GJQsqaUBKTNV-3" value="Terminal" style="rounded=1;whiteSpace=wrap;html=1;fontSize=12;glass=0;strokeWidth=1;shadow=0;" parent="WIyWlLk6GJQsqaUBKTNV-1" vertex="1">
          <mxGeometry x="360" y="110" width="120" height="40" as="geometry" />
        </mxCell>
        <mxCell id="QXNLKvz9UyWD1oBQTvfC-6" value="" style="endArrow=classic;html=1;rounded=0;fontSize=10;exitX=0.5;exitY=1;exitDx=0;exitDy=0;" parent="WIyWlLk6GJQsqaUBKTNV-1" target="QXNLKvz9UyWD1oBQTvfC-7" edge="1">
          <mxGeometry width="50" height="50" relative="1" as="geometry">
            <mxPoint x="420.0000000000001" y="360" as="sourcePoint" />
            <mxPoint x="420" y="380" as="targetPoint" />
          </mxGeometry>
        </mxCell>
        <mxCell id="QXNLKvz9UyWD1oBQTvfC-7" value="" style="rounded=1;whiteSpace=wrap;html=1;fontSize=10;" parent="WIyWlLk6GJQsqaUBKTNV-1" vertex="1">
          <mxGeometry x="360" y="390" width="120" height="50" as="geometry" />
        </mxCell>
        <mxCell id="QXNLKvz9UyWD1oBQTvfC-8" value="Display Results" style="text;html=1;strokeColor=none;fillColor=none;align=center;verticalAlign=middle;whiteSpace=wrap;rounded=0;fontSize=10;" parent="WIyWlLk6GJQsqaUBKTNV-1" vertex="1">
          <mxGeometry x="360" y="390" width="120" height="50" as="geometry" />
        </mxCell>
        <mxCell id="QXNLKvz9UyWD1oBQTvfC-10" value="" style="rhombus;whiteSpace=wrap;html=1;fontSize=10;" parent="WIyWlLk6GJQsqaUBKTNV-1" vertex="1">
          <mxGeometry x="379.9999999999999" y="180.00000000000006" width="80" height="80" as="geometry" />
        </mxCell>
        <mxCell id="QXNLKvz9UyWD1oBQTvfC-11" value="Fetch Play State" style="text;html=1;strokeColor=none;fillColor=none;align=center;verticalAlign=middle;whiteSpace=wrap;rounded=0;fontSize=10;" parent="WIyWlLk6GJQsqaUBKTNV-1" vertex="1">
          <mxGeometry x="390" y="205" width="60" height="30" as="geometry" />
        </mxCell>
        <mxCell id="QXNLKvz9UyWD1oBQTvfC-12" value="" style="endArrow=classic;html=1;rounded=0;fontSize=10;exitX=0.5;exitY=1;exitDx=0;exitDy=0;" parent="WIyWlLk6GJQsqaUBKTNV-1" source="QXNLKvz9UyWD1oBQTvfC-10" edge="1">
          <mxGeometry width="50" height="50" relative="1" as="geometry">
            <mxPoint x="430" y="320" as="sourcePoint" />
            <mxPoint x="419.9999999999999" y="280.0000000000001" as="targetPoint" />
          </mxGeometry>
        </mxCell>
        <mxCell id="QXNLKvz9UyWD1oBQTvfC-15" value="" style="rhombus;whiteSpace=wrap;html=1;fontSize=10;" parent="WIyWlLk6GJQsqaUBKTNV-1" vertex="1">
          <mxGeometry x="379.9999999999999" y="280.00000000000006" width="80" height="80" as="geometry" />
        </mxCell>
        <mxCell id="QXNLKvz9UyWD1oBQTvfC-16" value="Fetch User Library" style="text;html=1;strokeColor=none;fillColor=none;align=center;verticalAlign=middle;whiteSpace=wrap;rounded=0;fontSize=10;" parent="WIyWlLk6GJQsqaUBKTNV-1" vertex="1">
          <mxGeometry x="390" y="305" width="60" height="30" as="geometry" />
        </mxCell>
        <mxCell id="QXNLKvz9UyWD1oBQTvfC-17" value="" style="endArrow=classic;html=1;rounded=0;fontSize=10;exitX=1;exitY=0.5;exitDx=0;exitDy=0;entryX=0;entryY=0.5;entryDx=0;entryDy=0;" parent="WIyWlLk6GJQsqaUBKTNV-1" source="QXNLKvz9UyWD1oBQTvfC-8" target="QXNLKvz9UyWD1oBQTvfC-18" edge="1">
          <mxGeometry width="50" height="50" relative="1" as="geometry">
            <mxPoint x="490" y="500" as="sourcePoint" />
            <mxPoint x="540" y="450" as="targetPoint" />
          </mxGeometry>
        </mxCell>
        <mxCell id="QXNLKvz9UyWD1oBQTvfC-18" value="" style="rhombus;whiteSpace=wrap;html=1;fontSize=10;" parent="WIyWlLk6GJQsqaUBKTNV-1" vertex="1">
          <mxGeometry x="580" y="375" width="80" height="80" as="geometry" />
        </mxCell>
        <mxCell id="QXNLKvz9UyWD1oBQTvfC-19" value="Search" style="text;html=1;strokeColor=none;fillColor=none;align=center;verticalAlign=middle;whiteSpace=wrap;rounded=0;fontSize=10;" parent="WIyWlLk6GJQsqaUBKTNV-1" vertex="1">
          <mxGeometry x="500" y="390" width="60" height="30" as="geometry" />
        </mxCell>
        <mxCell id="QXNLKvz9UyWD1oBQTvfC-20" value="Fetch Search" style="text;html=1;strokeColor=none;fillColor=none;align=center;verticalAlign=middle;whiteSpace=wrap;rounded=0;fontSize=10;" parent="WIyWlLk6GJQsqaUBKTNV-1" vertex="1">
          <mxGeometry x="590" y="400" width="60" height="30" as="geometry" />
        </mxCell>
        <mxCell id="QXNLKvz9UyWD1oBQTvfC-21" value="" style="endArrow=classic;html=1;rounded=0;fontSize=10;exitX=0.003;exitY=0.913;exitDx=0;exitDy=0;exitPerimeter=0;entryX=1;entryY=0.75;entryDx=0;entryDy=0;" parent="WIyWlLk6GJQsqaUBKTNV-1" source="QXNLKvz9UyWD1oBQTvfC-20" target="QXNLKvz9UyWD1oBQTvfC-8" edge="1">
          <mxGeometry width="50" height="50" relative="1" as="geometry">
            <mxPoint x="520" y="500" as="sourcePoint" />
            <mxPoint x="570" y="450" as="targetPoint" />
          </mxGeometry>
        </mxCell>
        <mxCell id="QXNLKvz9UyWD1oBQTvfC-22" value="" style="endArrow=classic;html=1;rounded=0;fontSize=10;exitX=0;exitY=1;exitDx=0;exitDy=0;" parent="WIyWlLk6GJQsqaUBKTNV-1" source="QXNLKvz9UyWD1oBQTvfC-8" edge="1">
          <mxGeometry width="50" height="50" relative="1" as="geometry">
            <mxPoint x="350" y="455" as="sourcePoint" />
            <mxPoint x="320" y="495" as="targetPoint" />
          </mxGeometry>
        </mxCell>
        <mxCell id="QXNLKvz9UyWD1oBQTvfC-24" value="" style="endArrow=classic;html=1;rounded=0;fontSize=10;exitX=1;exitY=1;exitDx=0;exitDy=0;" parent="WIyWlLk6GJQsqaUBKTNV-1" source="QXNLKvz9UyWD1oBQTvfC-8" edge="1">
          <mxGeometry width="50" height="50" relative="1" as="geometry">
            <mxPoint x="490.0000000000001" y="450" as="sourcePoint" />
            <mxPoint x="520" y="490" as="targetPoint" />
          </mxGeometry>
        </mxCell>
        <mxCell id="QXNLKvz9UyWD1oBQTvfC-26" value="" style="rhombus;whiteSpace=wrap;html=1;fontSize=10;" parent="WIyWlLk6GJQsqaUBKTNV-1" vertex="1">
          <mxGeometry x="260" y="475" width="80" height="80" as="geometry" />
        </mxCell>
        <mxCell id="QXNLKvz9UyWD1oBQTvfC-27" value="" style="rhombus;whiteSpace=wrap;html=1;fontSize=10;" parent="WIyWlLk6GJQsqaUBKTNV-1" vertex="1">
          <mxGeometry x="500" y="470" width="80" height="80" as="geometry" />
        </mxCell>
        <mxCell id="QXNLKvz9UyWD1oBQTvfC-28" value="" style="rhombus;whiteSpace=wrap;html=1;fontSize=10;" parent="WIyWlLk6GJQsqaUBKTNV-1" vertex="1">
          <mxGeometry x="380" y="480" width="80" height="80" as="geometry" />
        </mxCell>
        <mxCell id="QXNLKvz9UyWD1oBQTvfC-29" value="&lt;font style=&quot;font-size: 8px&quot;&gt;Add to playlist&lt;/font&gt;" style="text;html=1;strokeColor=none;fillColor=none;align=center;verticalAlign=middle;whiteSpace=wrap;rounded=0;fontSize=10;" parent="WIyWlLk6GJQsqaUBKTNV-1" vertex="1">
          <mxGeometry x="270" y="500" width="60" height="30" as="geometry" />
        </mxCell>
        <mxCell id="QXNLKvz9UyWD1oBQTvfC-32" value="&lt;font style=&quot;font-size: 8px&quot;&gt;Select Line&lt;/font&gt;" style="text;html=1;strokeColor=none;fillColor=none;align=center;verticalAlign=middle;whiteSpace=wrap;rounded=0;fontSize=10;" parent="WIyWlLk6GJQsqaUBKTNV-1" vertex="1">
          <mxGeometry x="300" y="440" width="60" height="20" as="geometry" />
        </mxCell>
        <mxCell id="QXNLKvz9UyWD1oBQTvfC-38" value="&lt;font style=&quot;font-size: 8px&quot;&gt;Select Line&lt;/font&gt;" style="text;html=1;strokeColor=none;fillColor=none;align=center;verticalAlign=middle;whiteSpace=wrap;rounded=0;fontSize=10;" parent="WIyWlLk6GJQsqaUBKTNV-1" vertex="1">
          <mxGeometry x="480" y="440" width="60" height="20" as="geometry" />
        </mxCell>
        <mxCell id="QXNLKvz9UyWD1oBQTvfC-39" value="Play song" style="text;html=1;strokeColor=none;fillColor=none;align=center;verticalAlign=middle;whiteSpace=wrap;rounded=0;fontSize=8;" parent="WIyWlLk6GJQsqaUBKTNV-1" vertex="1">
          <mxGeometry x="390" y="505" width="60" height="30" as="geometry" />
        </mxCell>
        <mxCell id="QXNLKvz9UyWD1oBQTvfC-40" value="Add to playback queue" style="text;html=1;strokeColor=none;fillColor=none;align=center;verticalAlign=middle;whiteSpace=wrap;rounded=0;fontSize=8;" parent="WIyWlLk6GJQsqaUBKTNV-1" vertex="1">
          <mxGeometry x="510" y="495" width="60" height="30" as="geometry" />
        </mxCell>
        <mxCell id="QXNLKvz9UyWD1oBQTvfC-41" value="" style="endArrow=classic;html=1;rounded=0;fontSize=8;exitX=0.978;exitY=0.145;exitDx=0;exitDy=0;exitPerimeter=0;entryX=0.116;entryY=1.065;entryDx=0;entryDy=0;entryPerimeter=0;" parent="WIyWlLk6GJQsqaUBKTNV-1" source="QXNLKvz9UyWD1oBQTvfC-29" target="QXNLKvz9UyWD1oBQTvfC-8" edge="1">
          <mxGeometry width="50" height="50" relative="1" as="geometry">
            <mxPoint x="340" y="500" as="sourcePoint" />
            <mxPoint x="390" y="450" as="targetPoint" />
          </mxGeometry>
        </mxCell>
        <mxCell id="QXNLKvz9UyWD1oBQTvfC-42" value="" style="endArrow=classic;html=1;rounded=0;fontSize=8;exitX=0.599;exitY=0.102;exitDx=0;exitDy=0;exitPerimeter=0;entryX=0.569;entryY=0.989;entryDx=0;entryDy=0;entryPerimeter=0;" parent="WIyWlLk6GJQsqaUBKTNV-1" source="QXNLKvz9UyWD1oBQTvfC-28" target="QXNLKvz9UyWD1oBQTvfC-8" edge="1">
          <mxGeometry width="50" height="50" relative="1" as="geometry">
            <mxPoint x="430" y="485" as="sourcePoint" />
            <mxPoint x="480" y="435" as="targetPoint" />
          </mxGeometry>
        </mxCell>
        <mxCell id="QXNLKvz9UyWD1oBQTvfC-44" value="&lt;font style=&quot;font-size: 8px&quot;&gt;Select Line&lt;/font&gt;" style="text;html=1;strokeColor=none;fillColor=none;align=center;verticalAlign=middle;whiteSpace=wrap;rounded=0;fontSize=10;" parent="WIyWlLk6GJQsqaUBKTNV-1" vertex="1">
          <mxGeometry x="370" y="450" width="60" height="20" as="geometry" />
        </mxCell>
        <mxCell id="QXNLKvz9UyWD1oBQTvfC-45" value="" style="endArrow=classic;html=1;rounded=0;fontSize=8;exitX=0.5;exitY=1;exitDx=0;exitDy=0;entryX=0.5;entryY=0;entryDx=0;entryDy=0;" parent="WIyWlLk6GJQsqaUBKTNV-1" source="QXNLKvz9UyWD1oBQTvfC-8" target="QXNLKvz9UyWD1oBQTvfC-28" edge="1">
          <mxGeometry width="50" height="50" relative="1" as="geometry">
            <mxPoint x="437.91999999999985" y="498.1600000000001" as="sourcePoint" />
            <mxPoint x="420" y="460" as="targetPoint" />
          </mxGeometry>
        </mxCell>
        <mxCell id="QXNLKvz9UyWD1oBQTvfC-46" value="" style="endArrow=classic;html=1;rounded=0;fontSize=8;exitX=0;exitY=0;exitDx=0;exitDy=0;entryX=0.896;entryY=1.057;entryDx=0;entryDy=0;entryPerimeter=0;" parent="WIyWlLk6GJQsqaUBKTNV-1" source="QXNLKvz9UyWD1oBQTvfC-40" target="QXNLKvz9UyWD1oBQTvfC-8" edge="1">
          <mxGeometry width="50" height="50" relative="1" as="geometry">
            <mxPoint x="340" y="500" as="sourcePoint" />
            <mxPoint x="390" y="450" as="targetPoint" />
          </mxGeometry>
        </mxCell>
        <mxCell id="QXNLKvz9UyWD1oBQTvfC-47" value="" style="endArrow=classic;html=1;rounded=0;fontSize=8;exitX=0;exitY=0.5;exitDx=0;exitDy=0;entryX=1;entryY=0.5;entryDx=0;entryDy=0;" parent="WIyWlLk6GJQsqaUBKTNV-1" source="QXNLKvz9UyWD1oBQTvfC-8" target="QXNLKvz9UyWD1oBQTvfC-48" edge="1">
          <mxGeometry width="50" height="50" relative="1" as="geometry">
            <mxPoint x="420" y="480" as="sourcePoint" />
            <mxPoint x="280" y="415" as="targetPoint" />
          </mxGeometry>
        </mxCell>
        <mxCell id="QXNLKvz9UyWD1oBQTvfC-48" value="" style="rhombus;whiteSpace=wrap;html=1;fontSize=8;" parent="WIyWlLk6GJQsqaUBKTNV-1" vertex="1">
          <mxGeometry x="180" y="375" width="80" height="80" as="geometry" />
        </mxCell>
        <mxCell id="QXNLKvz9UyWD1oBQTvfC-50" value="" style="endArrow=classic;html=1;rounded=0;fontSize=8;exitX=0.91;exitY=0.65;exitDx=0;exitDy=0;entryX=0;entryY=0.75;entryDx=0;entryDy=0;exitPerimeter=0;" parent="WIyWlLk6GJQsqaUBKTNV-1" source="QXNLKvz9UyWD1oBQTvfC-48" target="QXNLKvz9UyWD1oBQTvfC-8" edge="1">
          <mxGeometry width="50" height="50" relative="1" as="geometry">
            <mxPoint x="370" y="425" as="sourcePoint" />
            <mxPoint x="270" y="425" as="targetPoint" />
          </mxGeometry>
        </mxCell>
        <mxCell id="QXNLKvz9UyWD1oBQTvfC-51" value="Browse" style="text;html=1;strokeColor=none;fillColor=none;align=center;verticalAlign=middle;whiteSpace=wrap;rounded=0;fontSize=8;" parent="WIyWlLk6GJQsqaUBKTNV-1" vertex="1">
          <mxGeometry x="280" y="390" width="60" height="30" as="geometry" />
        </mxCell>
        <mxCell id="QXNLKvz9UyWD1oBQTvfC-52" value="Fetch browse topic" style="text;html=1;strokeColor=none;fillColor=none;align=center;verticalAlign=middle;whiteSpace=wrap;rounded=0;fontSize=8;" parent="WIyWlLk6GJQsqaUBKTNV-1" vertex="1">
          <mxGeometry x="190" y="400" width="60" height="30" as="geometry" />
        </mxCell>
      </root>
    </mxGraphModel>
  </diagram>
  <diagram id="iNuSmiTNlgMRfNC4Fgwx" name="Objects">
    <mxGraphModel dx="2035" dy="1732" grid="1" gridSize="10" guides="1" tooltips="1" connect="1" arrows="1" fold="1" page="1" pageScale="1" pageWidth="850" pageHeight="1100" math="0" shadow="0">
      <root>
        <mxCell id="fjsnOfJO2jKw9C3FzO8o-0" />
        <mxCell id="fjsnOfJO2jKw9C3FzO8o-1" parent="fjsnOfJO2jKw9C3FzO8o-0" />
        <mxCell id="fjsnOfJO2jKw9C3FzO8o-2" value="Panel" style="swimlane;" vertex="1" parent="fjsnOfJO2jKw9C3FzO8o-1">
          <mxGeometry x="-800" y="-1070" width="460" height="350" as="geometry" />
        </mxCell>
        <mxCell id="fjsnOfJO2jKw9C3FzO8o-3" value="Window" style="swimlane;fontStyle=0;childLayout=stackLayout;horizontal=1;startSize=30;horizontalStack=0;resizeParent=1;resizeParentMax=0;resizeLast=0;collapsible=1;marginBottom=0;" vertex="1" parent="fjsnOfJO2jKw9C3FzO8o-1">
          <mxGeometry x="-780" y="-1010" width="190" height="120" as="geometry" />
        </mxCell>
        <mxCell id="fjsnOfJO2jKw9C3FzO8o-4" value="- Title/Name" style="text;strokeColor=none;fillColor=none;align=left;verticalAlign=middle;spacingLeft=4;spacingRight=4;overflow=hidden;points=[[0,0.5],[1,0.5]];portConstraint=eastwest;rotatable=0;" vertex="1" parent="fjsnOfJO2jKw9C3FzO8o-3">
          <mxGeometry y="30" width="190" height="30" as="geometry" />
        </mxCell>
        <mxCell id="fjsnOfJO2jKw9C3FzO8o-5" value="- Pad" style="text;strokeColor=none;fillColor=none;align=left;verticalAlign=middle;spacingLeft=4;spacingRight=4;overflow=hidden;points=[[0,0.5],[1,0.5]];portConstraint=eastwest;rotatable=0;" vertex="1" parent="fjsnOfJO2jKw9C3FzO8o-3">
          <mxGeometry y="60" width="190" height="30" as="geometry" />
        </mxCell>
        <mxCell id="fjsnOfJO2jKw9C3FzO8o-6" value="A container that houses the visual area of a pad. Can refresh" style="text;strokeColor=none;fillColor=none;align=left;verticalAlign=middle;spacingLeft=4;spacingRight=4;overflow=hidden;points=[[0,0.5],[1,0.5]];portConstraint=eastwest;rotatable=0;whiteSpace=wrap;" vertex="1" parent="fjsnOfJO2jKw9C3FzO8o-3">
          <mxGeometry y="90" width="190" height="30" as="geometry" />
        </mxCell>
        <mxCell id="fjsnOfJO2jKw9C3FzO8o-7" style="edgeStyle=orthogonalEdgeStyle;rounded=0;orthogonalLoop=1;jettySize=auto;html=1;" edge="1" parent="fjsnOfJO2jKw9C3FzO8o-1" source="fjsnOfJO2jKw9C3FzO8o-8">
          <mxGeometry relative="1" as="geometry">
            <mxPoint x="-685" y="-879.9999999999998" as="targetPoint" />
          </mxGeometry>
        </mxCell>
        <mxCell id="fjsnOfJO2jKw9C3FzO8o-8" value="Pad" style="swimlane;fontStyle=0;childLayout=stackLayout;horizontal=1;startSize=30;horizontalStack=0;resizeParent=1;resizeParentMax=0;resizeLast=0;collapsible=1;marginBottom=0;" vertex="1" parent="fjsnOfJO2jKw9C3FzO8o-1">
          <mxGeometry x="-780" y="-860" width="190" height="120" as="geometry" />
        </mxCell>
        <mxCell id="fjsnOfJO2jKw9C3FzO8o-9" value="Sections" style="text;strokeColor=none;fillColor=none;align=left;verticalAlign=middle;spacingLeft=4;spacingRight=4;overflow=hidden;points=[[0,0.5],[1,0.5]];portConstraint=eastwest;rotatable=0;" vertex="1" parent="fjsnOfJO2jKw9C3FzO8o-8">
          <mxGeometry y="30" width="190" height="30" as="geometry" />
        </mxCell>
        <mxCell id="fjsnOfJO2jKw9C3FzO8o-10" value="Scrolling" style="text;strokeColor=none;fillColor=none;align=left;verticalAlign=middle;spacingLeft=4;spacingRight=4;overflow=hidden;points=[[0,0.5],[1,0.5]];portConstraint=eastwest;rotatable=0;" vertex="1" parent="fjsnOfJO2jKw9C3FzO8o-8">
          <mxGeometry y="60" width="190" height="30" as="geometry" />
        </mxCell>
        <mxCell id="fjsnOfJO2jKw9C3FzO8o-11" value="Content selection" style="text;strokeColor=none;fillColor=none;align=left;verticalAlign=middle;spacingLeft=4;spacingRight=4;overflow=hidden;points=[[0,0.5],[1,0.5]];portConstraint=eastwest;rotatable=0;" vertex="1" parent="fjsnOfJO2jKw9C3FzO8o-8">
          <mxGeometry y="90" width="190" height="30" as="geometry" />
        </mxCell>
        <mxCell id="fjsnOfJO2jKw9C3FzO8o-12" style="edgeStyle=orthogonalEdgeStyle;rounded=0;orthogonalLoop=1;jettySize=auto;html=1;" edge="1" parent="fjsnOfJO2jKw9C3FzO8o-1" source="fjsnOfJO2jKw9C3FzO8o-13">
          <mxGeometry relative="1" as="geometry">
            <mxPoint x="-580" y="-799.9999999999998" as="targetPoint" />
          </mxGeometry>
        </mxCell>
        <mxCell id="fjsnOfJO2jKw9C3FzO8o-13" value="Section" style="swimlane;fontStyle=0;childLayout=stackLayout;horizontal=1;startSize=30;horizontalStack=0;resizeParent=1;resizeParentMax=0;resizeLast=0;collapsible=1;marginBottom=0;" vertex="1" parent="fjsnOfJO2jKw9C3FzO8o-1">
          <mxGeometry x="-550" y="-860" width="190" height="120" as="geometry" />
        </mxCell>
        <mxCell id="fjsnOfJO2jKw9C3FzO8o-14" value="Title/Name" style="text;strokeColor=none;fillColor=none;align=left;verticalAlign=middle;spacingLeft=4;spacingRight=4;overflow=hidden;points=[[0,0.5],[1,0.5]];portConstraint=eastwest;rotatable=0;" vertex="1" parent="fjsnOfJO2jKw9C3FzO8o-13">
          <mxGeometry y="30" width="190" height="30" as="geometry" />
        </mxCell>
        <mxCell id="fjsnOfJO2jKw9C3FzO8o-15" value="Lines" style="text;strokeColor=none;fillColor=none;align=left;verticalAlign=middle;spacingLeft=4;spacingRight=4;overflow=hidden;points=[[0,0.5],[1,0.5]];portConstraint=eastwest;rotatable=0;" vertex="1" parent="fjsnOfJO2jKw9C3FzO8o-13">
          <mxGeometry y="60" width="190" height="30" as="geometry" />
        </mxCell>
        <mxCell id="fjsnOfJO2jKw9C3FzO8o-16" value="Contains lines for a given section. Like a playlist or album" style="text;strokeColor=none;fillColor=none;align=left;verticalAlign=middle;spacingLeft=4;spacingRight=4;overflow=hidden;points=[[0,0.5],[1,0.5]];portConstraint=eastwest;rotatable=0;whiteSpace=wrap;" vertex="1" parent="fjsnOfJO2jKw9C3FzO8o-13">
          <mxGeometry y="90" width="190" height="30" as="geometry" />
        </mxCell>
        <mxCell id="fjsnOfJO2jKw9C3FzO8o-17" style="edgeStyle=orthogonalEdgeStyle;rounded=0;orthogonalLoop=1;jettySize=auto;html=1;" edge="1" parent="fjsnOfJO2jKw9C3FzO8o-1" source="fjsnOfJO2jKw9C3FzO8o-18">
          <mxGeometry relative="1" as="geometry">
            <mxPoint x="-455" y="-869.9999999999998" as="targetPoint" />
          </mxGeometry>
        </mxCell>
        <mxCell id="fjsnOfJO2jKw9C3FzO8o-18" value="Line" style="swimlane;fontStyle=0;childLayout=stackLayout;horizontal=1;startSize=30;horizontalStack=0;resizeParent=1;resizeParentMax=0;resizeLast=0;collapsible=1;marginBottom=0;" vertex="1" parent="fjsnOfJO2jKw9C3FzO8o-1">
          <mxGeometry x="-550" y="-1010" width="190" height="90" as="geometry" />
        </mxCell>
        <mxCell id="fjsnOfJO2jKw9C3FzO8o-19" value="Content" style="text;strokeColor=none;fillColor=none;align=left;verticalAlign=middle;spacingLeft=4;spacingRight=4;overflow=hidden;points=[[0,0.5],[1,0.5]];portConstraint=eastwest;rotatable=0;" vertex="1" parent="fjsnOfJO2jKw9C3FzO8o-18">
          <mxGeometry y="30" width="190" height="30" as="geometry" />
        </mxCell>
        <mxCell id="fjsnOfJO2jKw9C3FzO8o-20" value="Contains a option or a single selection. Song or playlist" style="text;strokeColor=none;fillColor=none;align=left;verticalAlign=middle;spacingLeft=4;spacingRight=4;overflow=hidden;points=[[0,0.5],[1,0.5]];portConstraint=eastwest;rotatable=0;whiteSpace=wrap;" vertex="1" parent="fjsnOfJO2jKw9C3FzO8o-18">
          <mxGeometry y="60" width="190" height="30" as="geometry" />
        </mxCell>
        <mxCell id="fjsnOfJO2jKw9C3FzO8o-21" value="&lt;h1&gt;&lt;span style=&quot;font-size: 12px ; font-weight: normal&quot;&gt;Made of multiple panels to show content like currently playing a song or the possible selections a user can make. These panels will automatically iterate through its section and allow the user to select an option.&lt;/span&gt;&lt;br&gt;&lt;/h1&gt;" style="text;html=1;strokeColor=none;fillColor=none;spacing=5;spacingTop=-20;whiteSpace=wrap;overflow=hidden;rounded=0;" vertex="1" parent="fjsnOfJO2jKw9C3FzO8o-1">
          <mxGeometry x="-310" y="-1050" width="300" height="120" as="geometry" />
        </mxCell>
        <mxCell id="fjsnOfJO2jKw9C3FzO8o-22" value="Description and details" style="swimlane;" vertex="1" parent="fjsnOfJO2jKw9C3FzO8o-1">
          <mxGeometry x="-330" y="-1070" width="340" height="350" as="geometry" />
        </mxCell>
        <mxCell id="fjsnOfJO2jKw9C3FzO8o-23" value="Display" style="swimlane;horizontal=0;" vertex="1" parent="fjsnOfJO2jKw9C3FzO8o-1">
          <mxGeometry x="-840" y="-1090" width="860" height="390" as="geometry" />
        </mxCell>
        <mxCell id="fjsnOfJO2jKw9C3FzO8o-24" value="Types of panels" style="swimlane;fontStyle=0;childLayout=stackLayout;horizontal=1;startSize=30;horizontalStack=0;resizeParent=1;resizeParentMax=0;resizeLast=0;collapsible=1;marginBottom=0;" vertex="1" parent="fjsnOfJO2jKw9C3FzO8o-23">
          <mxGeometry x="530" y="190" width="300" height="150" as="geometry" />
        </mxCell>
        <mxCell id="fjsnOfJO2jKw9C3FzO8o-25" value="Search Result" style="text;strokeColor=none;fillColor=none;align=left;verticalAlign=middle;spacingLeft=4;spacingRight=4;overflow=hidden;points=[[0,0.5],[1,0.5]];portConstraint=eastwest;rotatable=0;" vertex="1" parent="fjsnOfJO2jKw9C3FzO8o-24">
          <mxGeometry y="30" width="300" height="30" as="geometry" />
        </mxCell>
        <mxCell id="fjsnOfJO2jKw9C3FzO8o-26" value="User library" style="text;strokeColor=none;fillColor=none;align=left;verticalAlign=middle;spacingLeft=4;spacingRight=4;overflow=hidden;points=[[0,0.5],[1,0.5]];portConstraint=eastwest;rotatable=0;" vertex="1" parent="fjsnOfJO2jKw9C3FzO8o-24">
          <mxGeometry y="60" width="300" height="30" as="geometry" />
        </mxCell>
        <mxCell id="fjsnOfJO2jKw9C3FzO8o-27" value="Currently playing" style="text;strokeColor=none;fillColor=none;align=left;verticalAlign=middle;spacingLeft=4;spacingRight=4;overflow=hidden;points=[[0,0.5],[1,0.5]];portConstraint=eastwest;rotatable=0;" vertex="1" parent="fjsnOfJO2jKw9C3FzO8o-24">
          <mxGeometry y="90" width="300" height="30" as="geometry" />
        </mxCell>
        <mxCell id="fjsnOfJO2jKw9C3FzO8o-28" value="Browse" style="text;strokeColor=none;fillColor=none;align=left;verticalAlign=middle;spacingLeft=4;spacingRight=4;overflow=hidden;points=[[0,0.5],[1,0.5]];portConstraint=eastwest;rotatable=0;" vertex="1" parent="fjsnOfJO2jKw9C3FzO8o-24">
          <mxGeometry y="120" width="300" height="30" as="geometry" />
        </mxCell>
      </root>
    </mxGraphModel>
  </diagram>
</mxfile>
